{"failedCount":0,"prefixedPath":"classpath:examples\/features\/get_user.feature","packageQualifiedName":"examples.features.get_user","loopIndex":-1,"relativePath":"examples\/features\/get_user.feature","scenarioResults":[{"sectionIndex":0,"stepResults":[{"result":{"nanos":1322900,"startTime":1747657115130,"endTime":1747657115131,"millis":1.3229,"status":"passed"},"step":{"background":true,"line":5,"prefix":"*","index":0,"text":"url baseUrl"},"stepLog":"08:18:35.080 karate.env system property was: null \n"},{"result":{"nanos":3701500,"startTime":1747657115135,"endTime":1747657115139,"millis":3.7015,"status":"passed"},"step":{"background":true,"line":6,"prefix":"*","index":1,"text":"header x-api-key = xApiKey"}},{"result":{"nanos":6160300,"startTime":1747657115139,"endTime":1747657115145,"millis":6.1603,"status":"passed"},"step":{"background":true,"line":7,"prefix":"*","index":2,"text":"def userId = 2"}},{"result":{"nanos":406600,"startTime":1747657115146,"endTime":1747657115146,"millis":0.4066,"status":"passed"},"step":{"line":10,"prefix":"Given","index":0,"text":"path 'users'"}},{"result":{"nanos":762800,"startTime":1747657115146,"endTime":1747657115147,"millis":0.7628,"status":"passed"},"step":{"line":11,"prefix":"And","index":1,"text":"param page = 2"}},{"result":{"nanos":1636975700,"startTime":1747657115147,"endTime":1747657116784,"millis":1636.9757,"status":"passed"},"step":{"line":12,"prefix":"When","index":2,"text":"method GET"},"stepLog":"08:18:35.503 request:\n1 > GET https:\/\/reqres.in\/api\/users?page=2\n1 > x-api-key: reqres-free-v1\n1 > Host: reqres.in\n1 > Connection: Keep-Alive\n1 > User-Agent: Apache-HttpClient\/4.5.14 (Java\/21.0.2)\n1 > Accept-Encoding: gzip,deflate\n\n\n08:18:36.732 response time in milliseconds: 1224\n1 < 200\n1 < Date: Mon, 19 May 2025 12:18:36 GMT\n1 < Content-Type: application\/json; charset=utf-8\n1 < Transfer-Encoding: chunked\n1 < Connection: keep-alive\n1 < Cf-Ray: 942389af9f73a5de-SCL\n1 < Server: cloudflare\n1 < Report-To: {\"group\":\"heroku-nel\",\"max_age\":3600,\"endpoints\":[{\"url\":\"https:\/\/nel.heroku.com\/reports?ts=1747577927&sid=c4c9725f-1ab0-44d8-820f-430df2718e11&s=x51ASSi8wIZj6pLQQC23quFh8L%2BqZd%2Bo6%2FO58P5V8RM%3D\"}]}\n1 < Reporting-Endpoints: heroku-nel=https:\/\/nel.heroku.com\/reports?ts=1747577927&sid=c4c9725f-1ab0-44d8-820f-430df2718e11&s=x51ASSi8wIZj6pLQQC23quFh8L%2BqZd%2Bo6%2FO58P5V8RM%3D\n1 < Nel: {\"report_to\":\"heroku-nel\",\"max_age\":3600,\"success_fraction\":0.005,\"failure_fraction\":0.05,\"response_headers\":[\"Via\"]}\n1 < X-Powered-By: Express\n1 < Access-Control-Allow-Origin: *\n1 < Ratelimit-Policy: 100;w=60\n1 < Ratelimit-Limit: 100\n1 < Ratelimit-Remaining: 98\n1 < Ratelimit-Reset: 60\n1 < Etag: W\/\"440-ZjsmMKR8P3usr2uJZbOCGCxC3Uw\"\n1 < Via: 1.1 vegur\n1 < Cache-Control: max-age=14400\n1 < Cf-Cache-Status: REVALIDATED\n1 < Vary: Accept-Encoding\n1 < server-timing: cfL4;desc=\"?proto=TCP&rtt=62062&min_rtt=61990&rtt_var=23391&sent=7&recv=7&lost=0&retrans=0&sent_bytes=3111&recv_bytes=765&delivery_rate=69618&cwnd=233&unsent_bytes=0&cid=9e7aec2b62d320b3&ts=765&x=0\"\n{\"page\":2,\"per_page\":6,\"total\":12,\"total_pages\":2,\"data\":[{\"id\":7,\"email\":\"michael.lawson@reqres.in\",\"first_name\":\"Michael\",\"last_name\":\"Lawson\",\"avatar\":\"https:\/\/reqres.in\/img\/faces\/7-image.jpg\"},{\"id\":8,\"email\":\"lindsay.ferguson@reqres.in\",\"first_name\":\"Lindsay\",\"last_name\":\"Ferguson\",\"avatar\":\"https:\/\/reqres.in\/img\/faces\/8-image.jpg\"},{\"id\":9,\"email\":\"tobias.funke@reqres.in\",\"first_name\":\"Tobias\",\"last_name\":\"Funke\",\"avatar\":\"https:\/\/reqres.in\/img\/faces\/9-image.jpg\"},{\"id\":10,\"email\":\"byron.fields@reqres.in\",\"first_name\":\"Byron\",\"last_name\":\"Fields\",\"avatar\":\"https:\/\/reqres.in\/img\/faces\/10-image.jpg\"},{\"id\":11,\"email\":\"george.edwards@reqres.in\",\"first_name\":\"George\",\"last_name\":\"Edwards\",\"avatar\":\"https:\/\/reqres.in\/img\/faces\/11-image.jpg\"},{\"id\":12,\"email\":\"rachel.howell@reqres.in\",\"first_name\":\"Rachel\",\"last_name\":\"Howell\",\"avatar\":\"https:\/\/reqres.in\/img\/faces\/12-image.jpg\"}],\"support\":{\"url\":\"https:\/\/contentcaddy.io?utm_source=reqres&utm_medium=json&utm_campaign=referral\",\"text\":\"Tired of writing endless social media content? Let Content Caddy generate it for you.\"}}\n\n"},{"result":{"nanos":6870200,"startTime":1747657116784,"endTime":1747657116791,"millis":6.8702,"status":"passed"},"step":{"line":13,"prefix":"Then","index":3,"text":"status 200"}},{"result":{"nanos":65615700,"startTime":1747657116791,"endTime":1747657116857,"millis":65.6157,"status":"passed"},"step":{"line":14,"prefix":"And","index":4,"text":"match response.page == 2"}},{"result":{"nanos":1892000,"startTime":1747657116857,"endTime":1747657116859,"millis":1.892,"status":"passed"},"step":{"line":15,"prefix":"And","index":5,"text":"match response.per_page == 6"}},{"result":{"nanos":3644100,"startTime":1747657116859,"endTime":1747657116863,"millis":3.6441,"status":"passed"},"step":{"line":16,"prefix":"And","index":6,"text":"match response.total == 12"}}],"line":9,"description":"","durationMillis":1727.3518,"failed":false,"tags":["Desarrollo","Produccion"],"executorName":"pool-2-thread-4","name":"Conseguir lista de usuarios","startTime":1747657114832,"refId":"[1:9]","endTime":1747657116862,"exampleIndex":-1},{"sectionIndex":1,"stepResults":[{"result":{"nanos":2249300,"startTime":1747657115129,"endTime":1747657115131,"millis":2.2493,"status":"passed"},"step":{"background":true,"line":5,"prefix":"*","index":0,"text":"url baseUrl"},"stepLog":"08:18:35.080 karate.env system property was: null \n"},{"result":{"nanos":2649300,"startTime":1747657115135,"endTime":1747657115138,"millis":2.6493,"status":"passed"},"step":{"background":true,"line":6,"prefix":"*","index":1,"text":"header x-api-key = xApiKey"}},{"result":{"nanos":5276200,"startTime":1747657115139,"endTime":1747657115144,"millis":5.2762,"status":"passed"},"step":{"background":true,"line":7,"prefix":"*","index":2,"text":"def userId = 2"}},{"result":{"nanos":875000,"startTime":1747657115145,"endTime":1747657115146,"millis":0.875,"status":"passed"},"step":{"line":19,"prefix":"Given","index":0,"text":"path 'users'"}},{"result":{"nanos":992800,"startTime":1747657115146,"endTime":1747657115147,"millis":0.9928,"status":"passed"},"step":{"line":20,"prefix":"And","index":1,"text":"param page = 2"}},{"result":{"nanos":1638209000,"startTime":1747657115147,"endTime":1747657116785,"millis":1638.209,"status":"passed"},"step":{"line":21,"prefix":"When","index":2,"text":"method GET"},"stepLog":"08:18:35.504 request:\n1 > GET https:\/\/reqres.in\/api\/users?page=2\n1 > x-api-key: reqres-free-v1\n1 > Host: reqres.in\n1 > Connection: Keep-Alive\n1 > User-Agent: Apache-HttpClient\/4.5.14 (Java\/21.0.2)\n1 > Accept-Encoding: gzip,deflate\n\n\n08:18:36.732 response time in milliseconds: 1224\n1 < 200\n1 < Date: Mon, 19 May 2025 12:18:36 GMT\n1 < Content-Type: application\/json; charset=utf-8\n1 < Transfer-Encoding: chunked\n1 < Connection: keep-alive\n1 < Cf-Ray: 942389af99290de3-SCL\n1 < Server: cloudflare\n1 < Report-To: {\"group\":\"heroku-nel\",\"max_age\":3600,\"endpoints\":[{\"url\":\"https:\/\/nel.heroku.com\/reports?ts=1747577927&sid=c4c9725f-1ab0-44d8-820f-430df2718e11&s=x51ASSi8wIZj6pLQQC23quFh8L%2BqZd%2Bo6%2FO58P5V8RM%3D\"}]}\n1 < Reporting-Endpoints: heroku-nel=https:\/\/nel.heroku.com\/reports?ts=1747577927&sid=c4c9725f-1ab0-44d8-820f-430df2718e11&s=x51ASSi8wIZj6pLQQC23quFh8L%2BqZd%2Bo6%2FO58P5V8RM%3D\n1 < Nel: {\"report_to\":\"heroku-nel\",\"max_age\":3600,\"success_fraction\":0.005,\"failure_fraction\":0.05,\"response_headers\":[\"Via\"]}\n1 < X-Powered-By: Express\n1 < Access-Control-Allow-Origin: *\n1 < Ratelimit-Policy: 100;w=60\n1 < Ratelimit-Limit: 100\n1 < Ratelimit-Remaining: 98\n1 < Ratelimit-Reset: 60\n1 < Etag: W\/\"440-ZjsmMKR8P3usr2uJZbOCGCxC3Uw\"\n1 < Via: 1.1 vegur\n1 < Cache-Control: max-age=14400\n1 < Cf-Cache-Status: REVALIDATED\n1 < Vary: Accept-Encoding\n1 < server-timing: cfL4;desc=\"?proto=TCP&rtt=62916&min_rtt=62657&rtt_var=23681&sent=7&recv=7&lost=0&retrans=0&sent_bytes=3110&recv_bytes=765&delivery_rate=69521&cwnd=252&unsent_bytes=0&cid=3cca85529fdece04&ts=739&x=0\"\n{\"page\":2,\"per_page\":6,\"total\":12,\"total_pages\":2,\"data\":[{\"id\":7,\"email\":\"michael.lawson@reqres.in\",\"first_name\":\"Michael\",\"last_name\":\"Lawson\",\"avatar\":\"https:\/\/reqres.in\/img\/faces\/7-image.jpg\"},{\"id\":8,\"email\":\"lindsay.ferguson@reqres.in\",\"first_name\":\"Lindsay\",\"last_name\":\"Ferguson\",\"avatar\":\"https:\/\/reqres.in\/img\/faces\/8-image.jpg\"},{\"id\":9,\"email\":\"tobias.funke@reqres.in\",\"first_name\":\"Tobias\",\"last_name\":\"Funke\",\"avatar\":\"https:\/\/reqres.in\/img\/faces\/9-image.jpg\"},{\"id\":10,\"email\":\"byron.fields@reqres.in\",\"first_name\":\"Byron\",\"last_name\":\"Fields\",\"avatar\":\"https:\/\/reqres.in\/img\/faces\/10-image.jpg\"},{\"id\":11,\"email\":\"george.edwards@reqres.in\",\"first_name\":\"George\",\"last_name\":\"Edwards\",\"avatar\":\"https:\/\/reqres.in\/img\/faces\/11-image.jpg\"},{\"id\":12,\"email\":\"rachel.howell@reqres.in\",\"first_name\":\"Rachel\",\"last_name\":\"Howell\",\"avatar\":\"https:\/\/reqres.in\/img\/faces\/12-image.jpg\"}],\"support\":{\"url\":\"https:\/\/contentcaddy.io?utm_source=reqres&utm_medium=json&utm_campaign=referral\",\"text\":\"Tired of writing endless social media content? Let Content Caddy generate it for you.\"}}\n\n"},{"result":{"nanos":5928300,"startTime":1747657116785,"endTime":1747657116791,"millis":5.9283,"status":"passed"},"step":{"line":22,"prefix":"Then","index":3,"text":"status 200"}},{"result":{"nanos":67491200,"startTime":1747657116791,"endTime":1747657116858,"millis":67.4912,"status":"passed"},"step":{"endLine":31,"line":23,"prefix":"And","docString":"{\n  per_page: \"#present\",\n  total: \"#present\",\n  total_pages: \"#present\",\n  data: \"#present\"\n}","index":4,"text":"match response contains"}},{"result":{"nanos":1359800,"startTime":1747657116859,"endTime":1747657116860,"millis":1.3598,"status":"passed"},"step":{"endLine":41,"line":32,"prefix":"And","docString":"{\n  id: \"#present\",\n  email: \"#present\",\n  first_name: \"#present\",\n  last_name: \"#present\",\n  avatar: \"#present\"\n}","index":5,"text":"match response.data contains"}}],"line":18,"description":"","durationMillis":1725.0309,"failed":false,"tags":["Desarrollo","Produccion"],"executorName":"pool-2-thread-5","name":"Conseguir estructura de la lista de usuarios","startTime":1747657114832,"refId":"[2:18]","endTime":1747657116860,"exampleIndex":-1},{"sectionIndex":2,"stepResults":[{"result":{"nanos":455800,"startTime":1747657116818,"endTime":1747657116818,"millis":0.4558,"status":"passed"},"step":{"background":true,"line":5,"prefix":"*","index":0,"text":"url baseUrl"},"stepLog":"08:18:36.816 karate.env system property was: null \n"},{"result":{"nanos":342800,"startTime":1747657116819,"endTime":1747657116819,"millis":0.3428,"status":"passed"},"step":{"background":true,"line":6,"prefix":"*","index":1,"text":"header x-api-key = xApiKey"}},{"result":{"nanos":638700,"startTime":1747657116819,"endTime":1747657116820,"millis":0.6387,"status":"passed"},"step":{"background":true,"line":7,"prefix":"*","index":2,"text":"def userId = 2"}},{"result":{"nanos":510600,"startTime":1747657116820,"endTime":1747657116821,"millis":0.5106,"status":"passed"},"step":{"line":44,"prefix":"Given","index":0,"text":"path 'users', userId"}},{"result":{"nanos":714755000,"startTime":1747657116821,"endTime":1747657117536,"millis":714.755,"status":"passed"},"step":{"line":45,"prefix":"When","index":1,"text":"method GET"},"stepLog":"08:18:36.823 request:\n1 > GET https:\/\/reqres.in\/api\/users\/2\n1 > x-api-key: reqres-free-v1\n1 > Host: reqres.in\n1 > Connection: Keep-Alive\n1 > User-Agent: Apache-HttpClient\/4.5.14 (Java\/21.0.2)\n1 > Accept-Encoding: gzip,deflate\n\n\n08:18:37.534 response time in milliseconds: 710\n1 < 200\n1 < Date: Mon, 19 May 2025 12:18:37 GMT\n1 < Content-Type: application\/json; charset=utf-8\n1 < Transfer-Encoding: chunked\n1 < Connection: keep-alive\n1 < Cf-Ray: 942389b56f10e7a1-SCL\n1 < Server: cloudflare\n1 < Report-To: {\"group\":\"heroku-nel\",\"max_age\":3600,\"endpoints\":[{\"url\":\"https:\/\/nel.heroku.com\/reports?ts=1747575526&sid=c4c9725f-1ab0-44d8-820f-430df2718e11&s=DN%2Bt5mqs2fFszv4j8RT4oIAZ9jMJbTIeuSam20LsIb8%3D\"}]}\n1 < Reporting-Endpoints: heroku-nel=https:\/\/nel.heroku.com\/reports?ts=1747575526&sid=c4c9725f-1ab0-44d8-820f-430df2718e11&s=DN%2Bt5mqs2fFszv4j8RT4oIAZ9jMJbTIeuSam20LsIb8%3D\n1 < Nel: {\"report_to\":\"heroku-nel\",\"max_age\":3600,\"success_fraction\":0.005,\"failure_fraction\":0.05,\"response_headers\":[\"Via\"]}\n1 < X-Powered-By: Express\n1 < Access-Control-Allow-Origin: *\n1 < Ratelimit-Policy: 100;w=60\n1 < Ratelimit-Limit: 100\n1 < Ratelimit-Remaining: 98\n1 < Ratelimit-Reset: 60\n1 < Etag: W\/\"152-ApQgGHL6RKwaebFlrPCYPBO1xHg\"\n1 < Via: 1.1 vegur\n1 < Cache-Control: max-age=14400\n1 < Cf-Cache-Status: REVALIDATED\n1 < Vary: Accept-Encoding\n1 < server-timing: cfL4;desc=\"?proto=TCP&rtt=63294&min_rtt=62950&rtt_var=24296&sent=4&recv=6&lost=0&retrans=0&sent_bytes=219&recv_bytes=1015&delivery_rate=22097&cwnd=250&unsent_bytes=0&cid=f4dbeaeb405ed190&ts=514&x=0\"\n{\"data\":{\"id\":2,\"email\":\"janet.weaver@reqres.in\",\"first_name\":\"Janet\",\"last_name\":\"Weaver\",\"avatar\":\"https:\/\/reqres.in\/img\/faces\/2-image.jpg\"},\"support\":{\"url\":\"https:\/\/contentcaddy.io?utm_source=reqres&utm_medium=json&utm_campaign=referral\",\"text\":\"Tired of writing endless social media content? Let Content Caddy generate it for you.\"}}\n\n"},{"result":{"nanos":13400,"startTime":1747657117535,"endTime":1747657117535,"millis":0.0134,"status":"passed"},"step":{"line":46,"prefix":"Then","index":2,"text":"status 200"}},{"result":{"nanos":1253500,"startTime":1747657117535,"endTime":1747657117536,"millis":1.2535,"status":"passed"},"step":{"endLine":53,"line":47,"prefix":"And","docString":"{\n  data: \"#present\",\n  support: \"#present\"\n}","index":3,"text":"match response contains"}},{"result":{"nanos":671400,"startTime":1747657117537,"endTime":1747657117538,"millis":0.6714,"status":"passed"},"step":{"endLine":63,"line":54,"prefix":"And","docString":"{\n  id: \"#present\",\n  email: \"#present\",\n  first_name: \"#present\",\n  last_name: \"#present\",\n  avatar: \"#present\"\n}","index":4,"text":"match response.data contains"}},{"result":{"nanos":1137300,"startTime":1747657117538,"endTime":1747657117539,"millis":1.1373,"status":"passed"},"step":{"line":64,"prefix":"And","index":5,"text":"match response.data.id == 2"}},{"result":{"nanos":906900,"startTime":1747657117539,"endTime":1747657117540,"millis":0.9069,"status":"passed"},"step":{"line":65,"prefix":"And","index":6,"text":"match response.data.email == \"janet.weaver@reqres.in\""}},{"result":{"nanos":825300,"startTime":1747657117540,"endTime":1747657117541,"millis":0.8253,"status":"passed"},"step":{"line":66,"prefix":"And","index":7,"text":"match response.data.first_name == 'Janet'"}},{"result":{"nanos":903200,"startTime":1747657117541,"endTime":1747657117542,"millis":0.9032,"status":"passed"},"step":{"line":67,"prefix":"And","index":8,"text":"match response.data.last_name == 'Weaver'"}}],"line":43,"description":"","durationMillis":722.4139,"failed":false,"tags":["Desarrollo","Produccion"],"executorName":"pool-2-thread-1","name":"Conseguir un usuario","startTime":1747657116812,"refId":"[3:43]","endTime":1747657117542,"exampleIndex":-1}],"callDepth":0,"name":"Conseguir usuario","description":"","resultDate":"2025-05-19 08:18:37 a. m.","durationMillis":4174.7966,"passedCount":3}