[{"line":2,"elements":[{"line":4,"name":"","description":"","type":"background","keyword":"Background","steps":[{"name":"url baseUrl","result":{"duration":1322900,"status":"passed"},"match":{"location":"karate","arguments":[]},"keyword":"*","line":5,"doc_string":{"content_type":"","value":"08:18:35.080 karate.env system property was: null \n","line":5}},{"name":"header x-api-key = xApiKey","result":{"duration":3701500,"status":"passed"},"match":{"location":"karate","arguments":[]},"keyword":"*","line":6},{"name":"def userId = 2","result":{"duration":6160300,"status":"passed"},"match":{"location":"karate","arguments":[]},"keyword":"*","line":7}]},{"start_timestamp":"2025-05-19T12:18:34.832Z","line":9,"name":"Conseguir lista de usuarios","description":"","id":"conseguir-lista-de-usuarios","type":"scenario","keyword":"Scenario","steps":[{"name":"path 'users'","result":{"duration":406600,"status":"passed"},"match":{"location":"karate","arguments":[]},"keyword":"Given","line":10},{"name":"param page = 2","result":{"duration":762800,"status":"passed"},"match":{"location":"karate","arguments":[]},"keyword":"And","line":11},{"name":"method GET","result":{"duration":1636975700,"status":"passed"},"match":{"location":"karate","arguments":[]},"keyword":"When","line":12,"doc_string":{"content_type":"","value":"08:18:35.503 request:\n1 > GET https:\/\/reqres.in\/api\/users?page=2\n1 > x-api-key: reqres-free-v1\n1 > Host: reqres.in\n1 > Connection: Keep-Alive\n1 > User-Agent: Apache-HttpClient\/4.5.14 (Java\/21.0.2)\n1 > Accept-Encoding: gzip,deflate\n\n\n08:18:36.732 response time in milliseconds: 1224\n1 < 200\n1 < Date: Mon, 19 May 2025 12:18:36 GMT\n1 < Content-Type: application\/json; charset=utf-8\n1 < Transfer-Encoding: chunked\n1 < Connection: keep-alive\n1 < Cf-Ray: 942389af9f73a5de-SCL\n1 < Server: cloudflare\n1 < Report-To: {\"group\":\"heroku-nel\",\"max_age\":3600,\"endpoints\":[{\"url\":\"https:\/\/nel.heroku.com\/reports?ts=1747577927&sid=c4c9725f-1ab0-44d8-820f-430df2718e11&s=x51ASSi8wIZj6pLQQC23quFh8L%2BqZd%2Bo6%2FO58P5V8RM%3D\"}]}\n1 < Reporting-Endpoints: heroku-nel=https:\/\/nel.heroku.com\/reports?ts=1747577927&sid=c4c9725f-1ab0-44d8-820f-430df2718e11&s=x51ASSi8wIZj6pLQQC23quFh8L%2BqZd%2Bo6%2FO58P5V8RM%3D\n1 < Nel: {\"report_to\":\"heroku-nel\",\"max_age\":3600,\"success_fraction\":0.005,\"failure_fraction\":0.05,\"response_headers\":[\"Via\"]}\n1 < X-Powered-By: Express\n1 < Access-Control-Allow-Origin: *\n1 < Ratelimit-Policy: 100;w=60\n1 < Ratelimit-Limit: 100\n1 < Ratelimit-Remaining: 98\n1 < Ratelimit-Reset: 60\n1 < Etag: W\/\"440-ZjsmMKR8P3usr2uJZbOCGCxC3Uw\"\n1 < Via: 1.1 vegur\n1 < Cache-Control: max-age=14400\n1 < Cf-Cache-Status: REVALIDATED\n1 < Vary: Accept-Encoding\n1 < server-timing: cfL4;desc=\"?proto=TCP&rtt=62062&min_rtt=61990&rtt_var=23391&sent=7&recv=7&lost=0&retrans=0&sent_bytes=3111&recv_bytes=765&delivery_rate=69618&cwnd=233&unsent_bytes=0&cid=9e7aec2b62d320b3&ts=765&x=0\"\n{\"page\":2,\"per_page\":6,\"total\":12,\"total_pages\":2,\"data\":[{\"id\":7,\"email\":\"michael.lawson@reqres.in\",\"first_name\":\"Michael\",\"last_name\":\"Lawson\",\"avatar\":\"https:\/\/reqres.in\/img\/faces\/7-image.jpg\"},{\"id\":8,\"email\":\"lindsay.ferguson@reqres.in\",\"first_name\":\"Lindsay\",\"last_name\":\"Ferguson\",\"avatar\":\"https:\/\/reqres.in\/img\/faces\/8-image.jpg\"},{\"id\":9,\"email\":\"tobias.funke@reqres.in\",\"first_name\":\"Tobias\",\"last_name\":\"Funke\",\"avatar\":\"https:\/\/reqres.in\/img\/faces\/9-image.jpg\"},{\"id\":10,\"email\":\"byron.fields@reqres.in\",\"first_name\":\"Byron\",\"last_name\":\"Fields\",\"avatar\":\"https:\/\/reqres.in\/img\/faces\/10-image.jpg\"},{\"id\":11,\"email\":\"george.edwards@reqres.in\",\"first_name\":\"George\",\"last_name\":\"Edwards\",\"avatar\":\"https:\/\/reqres.in\/img\/faces\/11-image.jpg\"},{\"id\":12,\"email\":\"rachel.howell@reqres.in\",\"first_name\":\"Rachel\",\"last_name\":\"Howell\",\"avatar\":\"https:\/\/reqres.in\/img\/faces\/12-image.jpg\"}],\"support\":{\"url\":\"https:\/\/contentcaddy.io?utm_source=reqres&utm_medium=json&utm_campaign=referral\",\"text\":\"Tired of writing endless social media content? Let Content Caddy generate it for you.\"}}\n\n","line":12}},{"name":"status 200","result":{"duration":6870200,"status":"passed"},"match":{"location":"karate","arguments":[]},"keyword":"Then","line":13},{"name":"match response.page == 2","result":{"duration":65615700,"status":"passed"},"match":{"location":"karate","arguments":[]},"keyword":"And","line":14},{"name":"match response.per_page == 6","result":{"duration":1892000,"status":"passed"},"match":{"location":"karate","arguments":[]},"keyword":"And","line":15},{"name":"match response.total == 12","result":{"duration":3644100,"status":"passed"},"match":{"location":"karate","arguments":[]},"keyword":"And","line":16}],"tags":[{"name":"@Desarrollo","line":1},{"name":"@Produccion","line":1}]},{"line":4,"name":"","description":"","type":"background","keyword":"Background","steps":[{"name":"url baseUrl","result":{"duration":2249300,"status":"passed"},"match":{"location":"karate","arguments":[]},"keyword":"*","line":5,"doc_string":{"content_type":"","value":"08:18:35.080 karate.env system property was: null \n","line":5}},{"name":"header x-api-key = xApiKey","result":{"duration":2649300,"status":"passed"},"match":{"location":"karate","arguments":[]},"keyword":"*","line":6},{"name":"def userId = 2","result":{"duration":5276200,"status":"passed"},"match":{"location":"karate","arguments":[]},"keyword":"*","line":7}]},{"start_timestamp":"2025-05-19T12:18:34.832Z","line":18,"name":"Conseguir estructura de la lista de usuarios","description":"","id":"conseguir-estructura-de-la-lista-de-usuarios","type":"scenario","keyword":"Scenario","steps":[{"name":"path 'users'","result":{"duration":875000,"status":"passed"},"match":{"location":"karate","arguments":[]},"keyword":"Given","line":19},{"name":"param page = 2","result":{"duration":992800,"status":"passed"},"match":{"location":"karate","arguments":[]},"keyword":"And","line":20},{"name":"method GET","result":{"duration":1638209000,"status":"passed"},"match":{"location":"karate","arguments":[]},"keyword":"When","line":21,"doc_string":{"content_type":"","value":"08:18:35.504 request:\n1 > GET https:\/\/reqres.in\/api\/users?page=2\n1 > x-api-key: reqres-free-v1\n1 > Host: reqres.in\n1 > Connection: Keep-Alive\n1 > User-Agent: Apache-HttpClient\/4.5.14 (Java\/21.0.2)\n1 > Accept-Encoding: gzip,deflate\n\n\n08:18:36.732 response time in milliseconds: 1224\n1 < 200\n1 < Date: Mon, 19 May 2025 12:18:36 GMT\n1 < Content-Type: application\/json; charset=utf-8\n1 < Transfer-Encoding: chunked\n1 < Connection: keep-alive\n1 < Cf-Ray: 942389af99290de3-SCL\n1 < Server: cloudflare\n1 < Report-To: {\"group\":\"heroku-nel\",\"max_age\":3600,\"endpoints\":[{\"url\":\"https:\/\/nel.heroku.com\/reports?ts=1747577927&sid=c4c9725f-1ab0-44d8-820f-430df2718e11&s=x51ASSi8wIZj6pLQQC23quFh8L%2BqZd%2Bo6%2FO58P5V8RM%3D\"}]}\n1 < Reporting-Endpoints: heroku-nel=https:\/\/nel.heroku.com\/reports?ts=1747577927&sid=c4c9725f-1ab0-44d8-820f-430df2718e11&s=x51ASSi8wIZj6pLQQC23quFh8L%2BqZd%2Bo6%2FO58P5V8RM%3D\n1 < Nel: {\"report_to\":\"heroku-nel\",\"max_age\":3600,\"success_fraction\":0.005,\"failure_fraction\":0.05,\"response_headers\":[\"Via\"]}\n1 < X-Powered-By: Express\n1 < Access-Control-Allow-Origin: *\n1 < Ratelimit-Policy: 100;w=60\n1 < Ratelimit-Limit: 100\n1 < Ratelimit-Remaining: 98\n1 < Ratelimit-Reset: 60\n1 < Etag: W\/\"440-ZjsmMKR8P3usr2uJZbOCGCxC3Uw\"\n1 < Via: 1.1 vegur\n1 < Cache-Control: max-age=14400\n1 < Cf-Cache-Status: REVALIDATED\n1 < Vary: Accept-Encoding\n1 < server-timing: cfL4;desc=\"?proto=TCP&rtt=62916&min_rtt=62657&rtt_var=23681&sent=7&recv=7&lost=0&retrans=0&sent_bytes=3110&recv_bytes=765&delivery_rate=69521&cwnd=252&unsent_bytes=0&cid=3cca85529fdece04&ts=739&x=0\"\n{\"page\":2,\"per_page\":6,\"total\":12,\"total_pages\":2,\"data\":[{\"id\":7,\"email\":\"michael.lawson@reqres.in\",\"first_name\":\"Michael\",\"last_name\":\"Lawson\",\"avatar\":\"https:\/\/reqres.in\/img\/faces\/7-image.jpg\"},{\"id\":8,\"email\":\"lindsay.ferguson@reqres.in\",\"first_name\":\"Lindsay\",\"last_name\":\"Ferguson\",\"avatar\":\"https:\/\/reqres.in\/img\/faces\/8-image.jpg\"},{\"id\":9,\"email\":\"tobias.funke@reqres.in\",\"first_name\":\"Tobias\",\"last_name\":\"Funke\",\"avatar\":\"https:\/\/reqres.in\/img\/faces\/9-image.jpg\"},{\"id\":10,\"email\":\"byron.fields@reqres.in\",\"first_name\":\"Byron\",\"last_name\":\"Fields\",\"avatar\":\"https:\/\/reqres.in\/img\/faces\/10-image.jpg\"},{\"id\":11,\"email\":\"george.edwards@reqres.in\",\"first_name\":\"George\",\"last_name\":\"Edwards\",\"avatar\":\"https:\/\/reqres.in\/img\/faces\/11-image.jpg\"},{\"id\":12,\"email\":\"rachel.howell@reqres.in\",\"first_name\":\"Rachel\",\"last_name\":\"Howell\",\"avatar\":\"https:\/\/reqres.in\/img\/faces\/12-image.jpg\"}],\"support\":{\"url\":\"https:\/\/contentcaddy.io?utm_source=reqres&utm_medium=json&utm_campaign=referral\",\"text\":\"Tired of writing endless social media content? Let Content Caddy generate it for you.\"}}\n\n","line":21}},{"name":"status 200","result":{"duration":5928300,"status":"passed"},"match":{"location":"karate","arguments":[]},"keyword":"Then","line":22},{"name":"match response contains","result":{"duration":67491200,"status":"passed"},"match":{"location":"karate","arguments":[]},"keyword":"And","line":23,"doc_string":{"content_type":"","value":"{\n  per_page: \"#present\",\n  total: \"#present\",\n  total_pages: \"#present\",\n  data: \"#present\"\n}","line":23}},{"name":"match response.data contains","result":{"duration":1359800,"status":"passed"},"match":{"location":"karate","arguments":[]},"keyword":"And","line":32,"doc_string":{"content_type":"","value":"{\n  id: \"#present\",\n  email: \"#present\",\n  first_name: \"#present\",\n  last_name: \"#present\",\n  avatar: \"#present\"\n}","line":32}}],"tags":[{"name":"@Desarrollo","line":1},{"name":"@Produccion","line":1}]},{"line":4,"name":"","description":"","type":"background","keyword":"Background","steps":[{"name":"url baseUrl","result":{"duration":455800,"status":"passed"},"match":{"location":"karate","arguments":[]},"keyword":"*","line":5,"doc_string":{"content_type":"","value":"08:18:36.816 karate.env system property was: null \n","line":5}},{"name":"header x-api-key = xApiKey","result":{"duration":342800,"status":"passed"},"match":{"location":"karate","arguments":[]},"keyword":"*","line":6},{"name":"def userId = 2","result":{"duration":638700,"status":"passed"},"match":{"location":"karate","arguments":[]},"keyword":"*","line":7}]},{"start_timestamp":"2025-05-19T12:18:36.812Z","line":43,"name":"Conseguir un usuario","description":"","id":"conseguir-un-usuario","type":"scenario","keyword":"Scenario","steps":[{"name":"path 'users', userId","result":{"duration":510600,"status":"passed"},"match":{"location":"karate","arguments":[]},"keyword":"Given","line":44},{"name":"method GET","result":{"duration":714755000,"status":"passed"},"match":{"location":"karate","arguments":[]},"keyword":"When","line":45,"doc_string":{"content_type":"","value":"08:18:36.823 request:\n1 > GET https:\/\/reqres.in\/api\/users\/2\n1 > x-api-key: reqres-free-v1\n1 > Host: reqres.in\n1 > Connection: Keep-Alive\n1 > User-Agent: Apache-HttpClient\/4.5.14 (Java\/21.0.2)\n1 > Accept-Encoding: gzip,deflate\n\n\n08:18:37.534 response time in milliseconds: 710\n1 < 200\n1 < Date: Mon, 19 May 2025 12:18:37 GMT\n1 < Content-Type: application\/json; charset=utf-8\n1 < Transfer-Encoding: chunked\n1 < Connection: keep-alive\n1 < Cf-Ray: 942389b56f10e7a1-SCL\n1 < Server: cloudflare\n1 < Report-To: {\"group\":\"heroku-nel\",\"max_age\":3600,\"endpoints\":[{\"url\":\"https:\/\/nel.heroku.com\/reports?ts=1747575526&sid=c4c9725f-1ab0-44d8-820f-430df2718e11&s=DN%2Bt5mqs2fFszv4j8RT4oIAZ9jMJbTIeuSam20LsIb8%3D\"}]}\n1 < Reporting-Endpoints: heroku-nel=https:\/\/nel.heroku.com\/reports?ts=1747575526&sid=c4c9725f-1ab0-44d8-820f-430df2718e11&s=DN%2Bt5mqs2fFszv4j8RT4oIAZ9jMJbTIeuSam20LsIb8%3D\n1 < Nel: {\"report_to\":\"heroku-nel\",\"max_age\":3600,\"success_fraction\":0.005,\"failure_fraction\":0.05,\"response_headers\":[\"Via\"]}\n1 < X-Powered-By: Express\n1 < Access-Control-Allow-Origin: *\n1 < Ratelimit-Policy: 100;w=60\n1 < Ratelimit-Limit: 100\n1 < Ratelimit-Remaining: 98\n1 < Ratelimit-Reset: 60\n1 < Etag: W\/\"152-ApQgGHL6RKwaebFlrPCYPBO1xHg\"\n1 < Via: 1.1 vegur\n1 < Cache-Control: max-age=14400\n1 < Cf-Cache-Status: REVALIDATED\n1 < Vary: Accept-Encoding\n1 < server-timing: cfL4;desc=\"?proto=TCP&rtt=63294&min_rtt=62950&rtt_var=24296&sent=4&recv=6&lost=0&retrans=0&sent_bytes=219&recv_bytes=1015&delivery_rate=22097&cwnd=250&unsent_bytes=0&cid=f4dbeaeb405ed190&ts=514&x=0\"\n{\"data\":{\"id\":2,\"email\":\"janet.weaver@reqres.in\",\"first_name\":\"Janet\",\"last_name\":\"Weaver\",\"avatar\":\"https:\/\/reqres.in\/img\/faces\/2-image.jpg\"},\"support\":{\"url\":\"https:\/\/contentcaddy.io?utm_source=reqres&utm_medium=json&utm_campaign=referral\",\"text\":\"Tired of writing endless social media content? Let Content Caddy generate it for you.\"}}\n\n","line":45}},{"name":"status 200","result":{"duration":13400,"status":"passed"},"match":{"location":"karate","arguments":[]},"keyword":"Then","line":46},{"name":"match response contains","result":{"duration":1253500,"status":"passed"},"match":{"location":"karate","arguments":[]},"keyword":"And","line":47,"doc_string":{"content_type":"","value":"{\n  data: \"#present\",\n  support: \"#present\"\n}","line":47}},{"name":"match response.data contains","result":{"duration":671400,"status":"passed"},"match":{"location":"karate","arguments":[]},"keyword":"And","line":54,"doc_string":{"content_type":"","value":"{\n  id: \"#present\",\n  email: \"#present\",\n  first_name: \"#present\",\n  last_name: \"#present\",\n  avatar: \"#present\"\n}","line":54}},{"name":"match response.data.id == 2","result":{"duration":1137300,"status":"passed"},"match":{"location":"karate","arguments":[]},"keyword":"And","line":64},{"name":"match response.data.email == \"janet.weaver@reqres.in\"","result":{"duration":906900,"status":"passed"},"match":{"location":"karate","arguments":[]},"keyword":"And","line":65},{"name":"match response.data.first_name == 'Janet'","result":{"duration":825300,"status":"passed"},"match":{"location":"karate","arguments":[]},"keyword":"And","line":66},{"name":"match response.data.last_name == 'Weaver'","result":{"duration":903200,"status":"passed"},"match":{"location":"karate","arguments":[]},"keyword":"And","line":67}],"tags":[{"name":"@Desarrollo","line":1},{"name":"@Produccion","line":1}]}],"name":"examples\/features\/get_user.feature","description":"Conseguir usuario","id":"conseguir-usuario","keyword":"Feature","uri":"examples\/features\/get_user.feature","tags":[{"name":"@Produccion","line":1},{"name":"@Desarrollo","line":1}]}]